analysis.utf8
…
The tdf_stage_wins contains more detailed information about each years race. It has information about who won each stage, what time the rider achieved, and how many points they gained.

## # A tibble: 255,752 x 11
##    edition  year stage_results_id rank  time  rider     age team  points elapsed
##      <dbl> <dbl> <chr>            <chr> <chr> <chr>   <dbl> <lgl>  <dbl> <chr>  
##  1       1  1903 stage-1          1     13S   Garin     32 NA       100 13S    
##  2       1  1903 stage-1          2     55S   Pagie     32 NA        70 8S     
##  3       1  1903 stage-1          3     59S   George    23 NA        50 12S    
##  4       1  1903 stage-1          4     48S   Augere    20 NA        40 1S     
##  5       1  1903 stage-1          5     53S   Fische    36 NA        32 6S     
##  6       1  1903 stage-1          6     53S   Kerff     37 NA        26 6S     
##  7       1  1903 stage-1          7     55S   Cattea    25 NA        22 8S     
##  8       1  1903 stage-1          8     47S   Pivin     33 NA        18 0S     
##  9       1  1903 stage-1          9     15S   Habets    NA NA        14 28S    
## 10       1  1903 stage-1          10    26S   Beauge    22 NA        10 39S    
## #  with 255,742 more rows, and 1 more variable: bib_number <lgl>

The tdf_stages data contains information about the stage itself, such as the distance, type of stage, and destination.

## # A tibble: 2,236 x 8
##    stage date       distance origin   destination   type   winner winner_country
##    <chr> <date>        <dbl> <chr>    <chr>         <chr>  <chr>  <chr>         
##  1 1     2017-07-01      14  Dsseld Dsseldorf    Indiv Gerai GBR           
##  2 2     2017-07-02     204. Dsseld Lige         Flat  Marce GER           
##  3 3     2017-07-03     212. Verviers Longwy        Mediu Peter SVK           
##  4 4     2017-07-04     208. Mondorf Vittel        Flat  Arnau FRA           
##  5 5     2017-07-05     160. Vittel   La Planche d Mediu Fabio ITA           
##  6 6     2017-07-06     216  Vesoul   Troyes        Flat  Marce GER           
##  7 7     2017-07-07     214. Troyes   Nuits-Saint- Flat  Marce GER           
##  8 8     2017-07-08     188. Dole     Station des  Mediu Lilia FRA           
##  9 9     2017-07-09     182. Nantua   Chambry      High  Rigob COL           
## 10 10    2017-07-11     178  Prigue Bergerac      Flat  Marce GER           
## #  with 2,226 more rows
…
## # A tibble: 2 x 2
##   winner_name     time_overall
##   <chr>                  <dbl>
## 1 Lucien Buysse          239. 
## 2 Lance Armstrong         82.1

Stages

## # A tibble: 2,236 x 9
##    stage date       distance origin   destination   type   winner winner_country
##    <chr> <date>        <dbl> <chr>    <chr>         <chr>  <chr>  <chr>         
##  1 1     2017-07-01      14  Dsseld Dsseldorf    indiv Gerai GBR           
##  2 2     2017-07-02     204. Dsseld Lige         flat  Marce GER           
##  3 3     2017-07-03     212. Verviers Longwy        mediu Peter SVK           
##  4 4     2017-07-04     208. Mondorf Vittel        flat  Arnau FRA           
##  5 5     2017-07-05     160. Vittel   La Planche d mediu Fabio ITA           
##  6 6     2017-07-06     216  Vesoul   Troyes        flat  Marce GER           
##  7 7     2017-07-07     214. Troyes   Nuits-Saint- flat  Marce GER           
##  8 8     2017-07-08     188. Dole     Station des  mediu Lilia FRA           
##  9 9     2017-07-09     182. Nantua   Chambry      high  Rigob COL           
## 10 10    2017-07-11     178  Prigue Bergerac      flat  Marce GER           
## #  with 2,226 more rows, and 1 more variable: year <dbl>
…
